/home/facundo/Documents/tp1/sdpp2021-williams-ledesma/tp1/punto7/src/main/java/org/example/EjecutorRmi.java
/home/facundo/Documents/tp1/sdpp2021-williams-ledesma/tp1/punto7/src/main/java/org/example/Cliente.java
/home/facundo/Documents/tp1/sdpp2021-williams-ledesma/tp1/punto7/src/main/java/org/example/TareaImpl.java
/home/facundo/Documents/tp1/sdpp2021-williams-ledesma/tp1/punto7/src/main/java/org/example/Tarea.java
/home/facundo/Documents/tp1/sdpp2021-williams-ledesma/tp1/punto7/src/main/java/org/example/EjecutorRmiImpl.java
/home/facundo/Documents/tp1/sdpp2021-williams-ledesma/tp1/punto7/src/main/java/org/example/Servidor.java
