/home/facundo/Documents/sdpp2021/sdpp2021-williams-ledesma/tp1/src/main/java/org/example/Server.java
/home/facundo/Documents/sdpp2021/sdpp2021-williams-ledesma/tp1/src/main/java/org/example/Client.java
/home/facundo/Documents/sdpp2021/sdpp2021-williams-ledesma/tp1/src/main/java/org/example/ServerHilo.java
