/home/facundo/Documents/tp1/sdpp2021-williams-ledesma/tp1/punto6/src/main/java/org/example/CargaVectores.java
/home/facundo/Documents/tp1/sdpp2021-williams-ledesma/tp1/punto6/src/main/java/org/example/ClienteVectores.java
/home/facundo/Documents/tp1/sdpp2021-williams-ledesma/tp1/punto6/src/main/java/org/example/VectoresRmiImpl.java
/home/facundo/Documents/tp1/sdpp2021-williams-ledesma/tp1/punto6/src/main/java/org/example/ServidorVectores.java
/home/facundo/Documents/tp1/sdpp2021-williams-ledesma/tp1/punto6/src/main/java/org/example/VectoresRmi.java
