/home/facundo/Documents/tp1/sdpp2021-williams-ledesma/tp1/punto5/src/main/java/org/example/ClimaRmiImpl.java
/home/facundo/Documents/tp1/sdpp2021-williams-ledesma/tp1/punto5/src/main/java/org/example/Servidor.java
/home/facundo/Documents/tp1/sdpp2021-williams-ledesma/tp1/punto5/src/main/java/org/example/Cliente.java
/home/facundo/Documents/tp1/sdpp2021-williams-ledesma/tp1/punto5/src/main/java/org/example/ClimaRmi.java
